{
    "checks": [
        {
            "code": "CUS001",
            "description": "The predicate match specificaion is not correct.",
            "impact": "The resource will be listed as non-compliant",
            "resolution": "refer the related links and fix the drift",
            "requiredTypes": [
                "resource"
            ],
            "requiredLabels": [
                "azurerm_storage_account"
            ],
            "severity": "Error",
            "matchSpec": {
                "action": "and",
                "predicateMatchSpec": [
                    {
                        "action": "equals",
                        "name": "min_tls_version",
                        "value": "TLS1_2"
                    },
                    {
                        "action": "equals",
                        "name": "account_replication_type",
                        "value": "ZRS"
                    },
                    {
                        "action": "equals",
                        "name": "access_tier",
                        "value": "Hot"
                    },
                    {
                        "action": "equals",
                        "name": "enable_https_traffic_only",
                        "value": true
                    },
                    {
                        "action": "equals",
                        "name": "shared_access_key_enabled",
                        "value": false
                    }
                ]
            },
            "errorMessage": "CUS001 - Org Custom Rules",
            "relatedLinks": [
                "D:/repos/autoscheduler/docs/custom_checks/CUS001.html"
            ]
        },
        {
            "code": "CUS002",
            "description": "We identified the issues in tagging",
            "impact": "The resource will be listed as non-compliant",
            "resolution": "refer the related links and fix the drift    ",
            "requiredTypes": [
                "resource"
            ],
            "requiredLabels": [
                "azurerm_resource_group"
            ],
            "severity": "Error",
            "matchSpec": {
                "action": "and",
                "predicateMatchSpec": [
                    {
                        "action": "contains",
                        "name": "tags",
                        "value": {
                            "environment" : {
                                "action": "isAny",
                                "value": [
                                    "development",
                                    "production",
                                    "test"
                                ]
                            }
                        }
                    },
                    {
                        "action": "equals",
                        "name": "location",
                        "value": "westus"
                    }
                ]
            },
            "errorMessage": "CUS002 - Org Custom Rules",
            "relatedLinks": [
                "D:/repos/autoscheduler/docs/custom_checks/CUS002.html"
            ]
        },
        {
            "code": "CUS003",
            "description": "We identified the issues in Azure Function App",
            "impact": "The resource will be listed as non-compliant",
            "resolution": "refer the related links and fix the drift    ",
            "requiredTypes": [
                "resource"
            ],
            "requiredLabels": [
                "azurerm_windows_function_app"
            ],
            "severity": "Error",
            "matchSpec": {
                "action": "and",
                "predicateMatchSpec": [
                    {
                        "action": "contains",
                        "name": "tags",
                        "value": {
                            "environment" : {
                                "action": "isAny",
                                "value": [
                                    "development",
                                    "production",
                                    "test"
                                ]
                            }
                        }
                    },
                    {
                        "action": "equals",
                        "name": "https_only",
                        "value": "true"
                    }
                ]
            },
            "errorMessage": "CUS002 - Org Custom Rules",
            "relatedLinks": [
                "D:/repos/autoscheduler/docs/custom_checks/CUS002.html"
            ]
        }
    ]
}